Components/DEMUX2/DEMUX2.vcd
$date
   Fri Mar 19 00:40:06 2021
$end
$version
  2019.1
$end
$timescale
  1ps
$end
$scope module DEMUX2NewTB $end
$var reg 1 ! clk $end
$var reg 32 " t0 [31:0] $end
$var parameter 32 # period [31:0] $end
$scope module if_dut $end
$var reg 1 $ clk $end
$var reg 1 % reset $end
$var reg 16 & data_1 [15:0] $end
$var reg 1 ' select $end
$var reg 16 ( out_1 [15:0] $end
$var reg 16 ) out_2 [15:0] $end
$upscope $end
$scope module dut $end
$var wire 1 * clk $end
$var wire 1 + reset $end
$var wire 16 , data_1 [15:0] $end
$var wire 1 - select $end
$var reg 16 . out_1 [15:0] $end
$var reg 16 / out_2 [15:0] $end
$var parameter 32 0 DATA_PACKET_SIZE [31:0] $end
$upscope $end
$upscope $end
$enddefinitions $end
#0
$dumpvars
0!
b0 "
b10 #
0$
1%
bx &
x'
bx (
bx )
0*
1+
bx ,
x-
bx .
bx /
b10000 0
$end
#1000
1!
1$
bz (
bz )
1*
bz .
bz /
#2000
0!
0$
0*
#3000
1!
1$
1*
bz .
bz /
#4000
0!
0$
0*
#5000
1!
1$
1*
bz .
bz /
#6000
0!
0$
0*
#7000
1!
1$
1*
bz .
bz /
#8000
0!
0$
0*
#9000
1!
1$
1*
bz .
bz /
#10000
0!
0$
0%
0*
0+
#11000
1!
1$
b111101010111111 &
1'
bx (
bx )
1*
b111101010111111 ,
1-
bx .
bx /
#12000
0!
0$
0*
#13000
1!
1$
b1100010100011111 &
0'
bx (
b111101010111111 )
1*
b1100010100011111 ,
0-
b111101010111111 /
#14000
0!
0$
0*
#15000
1!
1$
b1100000111111000 &
1'
b1100010100011111 (
bx )
1*
b1100000111111000 ,
1-
b1100010100011111 .
#16000
0!
0$
0*
#17000
1!
1$
b1110001011011101 &
0'
bx (
b1100000111111000 )
1*
b1110001011011101 ,
0-
b1100000111111000 /
#18000
0!
0$
0*
#19000
1!
1$
b1111111110101110 &
1'
b1110001011011101 (
bx )
1*
b1111111110101110 ,
1-
b1110001011011101 .
#20000
0!
0$
0*
#21000
1!
1$
b10101001000111 &
0'
bx (
b1111111110101110 )
1*
b10101001000111 ,
0-
b1111111110101110 /
#22000
0!
0$
0*
#23000
1!
1$
b1011111110110100 &
1'
b10101001000111 (
bx )
1*
b1011111110110100 ,
1-
b10101001000111 .
#24000
0!
0$
0*
#25000
1!
1$
b1100010001010010 &
bx (
b1011111110110100 )
1*
b1100010001010010 ,
b1011111110110100 /
#26000
0!
0$
0*
#27000
1!
1$
b101001011000111 &
0'
bx (
b1100010001010010 )
1*
b101001011000111 ,
0-
b1100010001010010 /
#28000
0!
0$
0*
#29000
1!
1$
b1110010100011000 &
1'
b101001011000111 (
bx )
1*
b1110010100011000 ,
1-
b101001011000111 .
#30000
0!
0$
0*
#31000
1!
1$
b101001111100 &
bx (
b1110010100011000 )
1*
b101001111100 ,
b1110010100011000 /
#32000
0!
0$
0*
#33000
1!
1$
b1011010111100011 &
bx (
b101001111100 )
1*
b1011010111100011 ,
b101001111100 /
#34000
0!
0$
0*
#35000
1!
1$
b111001010100110 &
bx (
b1011010111100011 )
1*
b111001010100110 ,
b1011010111100011 /
#36000
0!
0$
0*
#37000
1!
1$
b10110110000111 &
0'
bx (
b111001010100110 )
1*
b10110110000111 ,
0-
b111001010100110 /
#38000
0!
0$
0*
#39000
1!
1$
b111101001101101 &
b10110110000111 (
bx )
1*
b111101001101101 ,
b10110110000111 .
#40000
0!
0$
0*
#41000
1!
1$
b10100011011011 &
b111101001101101 (
bx )
1*
b10100011011011 ,
b111101001101101 .
#42000
0!
0$
0*
#43000
1!
1$
b1001011011011 &
1'
b10100011011011 (
bx )
1*
b1001011011011 ,
1-
b10100011011011 .
#44000
0!
0$
0*
#45000
1!
1$
b1000010101010000 &
0'
bx (
b1001011011011 )
1*
b1000010101010000 ,
0-
b1001011011011 /
#46000
0!
0$
0*
#47000
1!
1$
b111101111111100 &
b1000010101010000 (
bx )
1*
b111101111111100 ,
b1000010101010000 .
#48000
0!
0$
0*
#49000
1!
1$
b1110100011100001 &
1'
b111101111111100 (
bx )
1*
b1110100011100001 ,
1-
b111101111111100 .
#50000
0!
0$
0*
#51000
1!
1$
b100111111111110 &
0'
bx (
b1110100011100001 )
1*
b100111111111110 ,
0-
b1110100011100001 /
#52000
0!
0$
0*
#53000
1!
1$
b101100111010100 &
1'
b100111111111110 (
bx )
1*
b101100111010100 ,
1-
b100111111111110 .
#54000
0!
0$
0*
#55000
1!
1$
b1010111011111011 &
0'
bx (
b101100111010100 )
1*
b1010111011111011 ,
0-
b101100111010100 /
#56000
0!
0$
0*
#57000
1!
1$
b1100011001001001 &
1'
b1010111011111011 (
bx )
1*
b1100011001001001 ,
1-
b1010111011111011 .
#58000
0!
0$
0*
#59000
1!
1$
b1101111101100010 &
bx (
b1100011001001001 )
1*
b1101111101100010 ,
b1100011001001001 /
#60000
0!
0$
0*
#61000
1!
1$
b1000111001010000 &
bx (
b1101111101100010 )
1*
b1000111001010000 ,
b1101111101100010 /
#62000
0!
0$
0*
#63000
1!
1$
b100110001010001 &
0'
bx (
b1000111001010000 )
1*
b100110001010001 ,
0-
b1000111001010000 /
#64000
0!
0$
0*
#65000
1!
1$
b10111110111000 &
b100110001010001 (
bx )
1*
b10111110111000 ,
b100110001010001 .
#66000
0!
0$
0*
#67000
1!
1$
b1110100010011110 &
b10111110111000 (
bx )
1*
b1110100010011110 ,
b10111110111000 .
#68000
0!
0$
0*
#69000
1!
1$
b101111011000001 &
1'
b1110100010011110 (
bx )
1*
b101111011000001 ,
1-
b1110100010011110 .
#70000
0!
0$
0*
#71000
1!
1$
b1111011000110111 &
0'
bx (
b101111011000001 )
1*
b1111011000110111 ,
0-
b101111011000001 /
#72000
0!
0$
0*
#73000
1!
1$
b10101100110000 &
b1111011000110111 (
bx )
1*
b10101100110000 ,
b1111011000110111 .
#74000
0!
0$
0*
#75000
1!
1$
b101000001101011 &
b10101100110000 (
bx )
1*
b101000001101011 ,
b10101100110000 .
#76000
0!
0$
0*
#77000
1!
1$
b100001011101011 &
1'
b101000001101011 (
bx )
1*
b100001011101011 ,
1-
b101000001101011 .
#78000
0!
0$
0*
#79000
1!
1$
b101101100100111 &
bx (
b100001011101011 )
1*
b101101100100111 ,
b100001011101011 /
#80000
0!
0$
0*
#81000
1!
1$
b1001110001011100 &
bx (
b101101100100111 )
1*
b1001110001011100 ,
b101101100100111 /
#82000
0!
0$
0*
#83000
1!
1$
b10100010100 &
bx (
b1001110001011100 )
1*
b10100010100 ,
b1001110001011100 /
#84000
0!
0$
0*
#85000
1!
1$
b101000111000001 &
bx (
b10100010100 )
1*
b101000111000001 ,
b10100010100 /
#86000
0!
0$
0*
#87000
1!
1$
b1100011110111110 &
0'
bx (
b101000111000001 )
1*
b1100011110111110 ,
0-
b101000111000001 /
#88000
0!
0$
0*
#89000
1!
1$
b101010110100101 &
1'
b1100011110111110 (
bx )
1*
b101010110100101 ,
1-
b1100011110111110 .
#90000
0!
0$
0*
#91000
1!
1$
b1001010011010101 &
0'
bx (
b101010110100101 )
1*
b1001010011010101 ,
0-
b101010110100101 /
#92000
0!
0$
0*
#93000
1!
1$
b10001100100000 &
1'
b1001010011010101 (
bx )
1*
b10001100100000 ,
1-
b1001010011010101 .
#94000
0!
0$
0*
#95000
1!
1$
b1111001001110001 &
bx (
b10001100100000 )
1*
b1111001001110001 ,
b10001100100000 /
#96000
0!
0$
0*
#97000
1!
1$
b1111110101001101 &
0'
bx (
b1111001001110001 )
1*
b1111110101001101 ,
0-
b1111001001110001 /
#98000
0!
0$
0*
#99000
1!
1$
b111010101000010 &
b1111110101001101 (
bx )
1*
b111010101000010 ,
b1111110101001101 .
#100000
0!
0$
0*
#101000
1!
1$
b1011101001110101 &
1'
b111010101000010 (
bx )
1*
b1011101001110101 ,
1-
b111010101000010 .
#102000
0!
0$
0*
#103000
1!
1$
b101001100111011 &
bx (
b1011101001110101 )
1*
b101001100111011 ,
b1011101001110101 /
#104000
0!
0$
0*
#105000
1!
1$
b110110101110010 &
bx (
b101001100111011 )
1*
b110110101110010 ,
b101001100111011 /
#106000
0!
0$
0*
#107000
1!
1$
b111101011010010 &
bx (
b110110101110010 )
1*
b111101011010010 ,
b110110101110010 /
#108000
0!
0$
0*
#109000
1!
1$
b100010111101101 &
0'
bx (
b111101011010010 )
1*
b100010111101101 ,
0-
b111101011010010 /
#110000
0!
0$
0*
#111000
1!
1$
b110101011101110 &
b100010111101101 (
bx )
1*
b110101011101110 ,
b100010111101101 .
#112000
0!
0$
0*
#113000
1!
1$
b101001110001101 &
b110101011101110 (
bx )
1*
b101001110001101 ,
b110101011101110 .
#114000
0!
0$
0*
#115000
1!
1$
b110001110111100 &
1'
b101001110001101 (
bx )
1*
b110001110111100 ,
1-
b101001110001101 .
#116000
0!
0$
0*
#117000
1!
1$
b1011111010100010 &
bx (
b110001110111100 )
1*
b1011111010100010 ,
b110001110111100 /
#118000
0!
0$
0*
#119000
1!
1$
b101110111011100 &
bx (
b1011111010100010 )
1*
b101110111011100 ,
b1011111010100010 /
#120000
0!
0$
0*
#121000
1!
1$
b100000111110100 &
bx (
b101110111011100 )
1*
b100000111110100 ,
b101110111011100 /
#122000
0!
0$
0*
#123000
1!
1$
b110011111101001 &
0'
bx (
b100000111110100 )
1*
b110011111101001 ,
0-
b100000111110100 /
#124000
0!
0$
0*
#125000
1!
1$
b1100100100100000 &
1'
b110011111101001 (
bx )
1*
b1100100100100000 ,
1-
b110011111101001 .
#126000
0!
0$
0*
#127000
1!
1$
b11001010010110 &
bx (
b1100100100100000 )
1*
b11001010010110 ,
b1100100100100000 /
#128000
0!
0$
0*
#129000
1!
1$
b1100101111110101 &
0'
bx (
b11001010010110 )
1*
b1100101111110101 ,
0-
b11001010010110 /
#130000
0!
0$
0*
#131000
1!
1$
b1000011111111010 &
1'
b1100101111110101 (
bx )
1*
b1000011111111010 ,
1-
b1100101111110101 .
#132000
0!
0$
0*
#133000
1!
1$
b1111001111101010 &
bx (
b1000011111111010 )
1*
b1111001111101010 ,
b1000011111111010 /
#134000
0!
0$
0*
#135000
1!
1$
b111000111101 &
bx (
b1111001111101010 )
1*
b111000111101 ,
b1111001111101010 /
#136000
0!
0$
0*
#137000
1!
1$
b101001100101101 &
0'
bx (
b111000111101 )
1*
b101001100101101 ,
0-
b111000111101 /
#138000
0!
0$
0*
#139000
1!
1$
b10000010000101 &
b101001100101101 (
bx )
1*
b10000010000101 ,
b101001100101101 .
#140000
0!
0$
0*
#141000
1!
1$
b1010010001001011 &
1'
b10000010000101 (
bx )
1*
b1010010001001011 ,
1-
b10000010000101 .
#142000
0!
0$
0*
#143000
1!
1$
b1111110001000 &
0'
bx (
b1010010001001011 )
1*
b1111110001000 ,
0-
b1010010001001011 /
#144000
0!
0$
0*
#145000
1!
1$
b1010100011011010 &
b1111110001000 (
bx )
1*
b1010100011011010 ,
b1111110001000 .
#146000
0!
0$
0*
#147000
1!
1$
b1001100001111100 &
b1010100011011010 (
bx )
1*
b1001100001111100 ,
b1010100011011010 .
#148000
0!
0$
0*
#149000
1!
1$
b1100101011001111 &
b1001100001111100 (
bx )
1*
b1100101011001111 ,
b1001100001111100 .
#150000
0!
0$
0*
#151000
1!
1$
b1001100100100000 &
b1100101011001111 (
bx )
1*
b1001100100100000 ,
b1100101011001111 .
#152000
0!
0$
0*
#153000
1!
1$
b101011000011100 &
b1001100100100000 (
bx )
1*
b101011000011100 ,
b1001100100100000 .
#154000
0!
0$
0*
#155000
1!
1$
b110111101100000 &
1'
b101011000011100 (
bx )
1*
b110111101100000 ,
1-
b101011000011100 .
#156000
0!
0$
0*
#157000
1!
1$
b1011100011001110 &
0'
bx (
b110111101100000 )
1*
b1011100011001110 ,
0-
b110111101100000 /
#158000
0!
0$
0*
#159000
1!
1$
b110001001101100 &
b1011100011001110 (
bx )
1*
b110001001101100 ,
b1011100011001110 .
#160000
0!
0$
0*
#161000
1!
1$
b100001001000 &
1'
b110001001101100 (
bx )
1*
b100001001000 ,
1-
b110001001101100 .
#162000
0!
0$
0*
#163000
1!
1$
b1110011100111010 &
0'
bx (
b100001001000 )
1*
b1110011100111010 ,
0-
b100001001000 /
#164000
0!
0$
0*
#165000
1!
1$
b101111011100011 &
b1110011100111010 (
bx )
1*
b101111011100011 ,
b1110011100111010 .
#166000
0!
0$
0*
#167000
1!
1$
b1100000110111011 &
b101111011100011 (
bx )
1*
b1100000110111011 ,
b101111011100011 .
#168000
0!
0$
0*
#169000
1!
1$
b101011011001110 &
b1100000110111011 (
bx )
1*
b101011011001110 ,
b1100000110111011 .
#170000
0!
0$
0*
#171000
1!
1$
b1100000010010 &
1'
b101011011001110 (
bx )
1*
b1100000010010 ,
1-
b101011011001110 .
#172000
0!
0$
0*
#173000
1!
1$
b10010001011000 &
0'
bx (
b1100000010010 )
1*
b10010001011000 ,
0-
b1100000010010 /
#174000
0!
0$
0*
#175000
1!
1$
b101111101001110 &
1'
b10010001011000 (
bx )
1*
b101111101001110 ,
1-
b10010001011000 .
#176000
0!
0$
0*
#177000
1!
1$
b1111111110001110 &
0'
bx (
b101111101001110 )
1*
b1111111110001110 ,
0-
b101111101001110 /
#178000
0!
0$
0*
#179000
1!
1$
b1000001110100010 &
1'
b1111111110001110 (
bx )
1*
b1000001110100010 ,
1-
b1111111110001110 .
#180000
0!
0$
0*
#181000
1!
1$
b10000101101111 &
bx (
b1000001110100010 )
1*
b10000101101111 ,
b1000001110100010 /
#182000
0!
0$
0*
#183000
1!
1$
b1011100111100010 &
bx (
b10000101101111 )
1*
b1011100111100010 ,
b10000101101111 /
#184000
0!
0$
0*
#185000
1!
1$
b1001101111101010 &
0'
bx (
b1011100111100010 )
1*
b1001101111101010 ,
0-
b1011100111100010 /
#186000
0!
0$
0*
#187000
1!
1$
b1010100100111010 &
1'
b1001101111101010 (
bx )
1*
b1010100100111010 ,
1-
b1001101111101010 .
#188000
0!
0$
0*
#189000
1!
1$
b1100110000100 &
bx (
b1010100100111010 )
1*
b1100110000100 ,
b1010100100111010 /
#190000
0!
0$
0*
#191000
1!
1$
b1111111011001001 &
0'
bx (
b1100110000100 )
1*
b1111111011001001 ,
0-
b1100110000100 /
#192000
0!
0$
0*
#193000
1!
1$
b10110011011101 &
1'
b1111111011001001 (
bx )
1*
b10110011011101 ,
1-
b1111111011001001 .
#194000
0!
0$
0*
#195000
1!
1$
b1001111000100010 &
bx (
b10110011011101 )
1*
b1001111000100010 ,
b10110011011101 /
#196000
0!
0$
0*
#197000
1!
1$
b101010111000011 &
bx (
b1001111000100010 )
1*
b101010111000011 ,
b1001111000100010 /
#198000
0!
0$
0*
#199000
1!
1$
b10110000100110 &
0'
bx (
b101010111000011 )
1*
b10110000100110 ,
0-
b101010111000011 /
#200000
0!
0$
0*
#201000
1!
1$
b100011110011010 &
1'
b10110000100110 (
bx )
1*
b100011110011010 ,
1-
b10110000100110 .
#202000
0!
0$
0*
#203000
1!
1$
b1101001010111011 &
bx (
b100011110011010 )
1*
b1101001010111011 ,
b100011110011010 /
#204000
0!
0$
0*
#205000
1!
1$
b1100100000000011 &
bx (
b1101001010111011 )
1*
b1100100000000011 ,
b1101001010111011 /
#206000
0!
0$
0*
#207000
1!
1$
b1101011111100000 &
bx (
b1100100000000011 )
1*
b1101011111100000 ,
b1100100000000011 /
#208000
0!
0$
0*
#209000
1!
1$
b111000100110000 &
bx (
b1101011111100000 )
1*
b111000100110000 ,
b1101011111100000 /
#210000
0!
0$
0*
#211000
1!
1$
b111000100110000 )
1*
b111000100110000 /
#212000
0!
0$
0*
#213000
1!
1$
1*
b111000100110000 /
#214000
0!
0$
0*
#215000
1!
1$
1*
b111000100110000 /
#216000
0!
0$
0*
#217000
1!
1$
1*
b111000100110000 /
#218000
0!
0$
0*
#219000
1!
1$
1*
b111000100110000 /
#220000
0!
0$
0*
#221000
1!
1$
1*
b111000100110000 /
#222000
0!
0$
0*
#223000
1!
1$
1*
b111000100110000 /
#224000
0!
0$
0*
#225000
1!
1$
1*
b111000100110000 /
#226000
0!
0$
0*
#227000
1!
1$
1*
b111000100110000 /
#228000
0!
0$
0*
#229000
1!
1$
1*
b111000100110000 /
#230000
0!
0$
0*
#231000
1!
1$
1*
b111000100110000 /
#232000
0!
0$
0*
#233000
1!
1$
1*
b111000100110000 /
#234000
0!
0$
0*
#235000
1!
1$
1*
b111000100110000 /
#236000
0!
0$
0*
#237000
1!
1$
1*
b111000100110000 /
#238000
0!
0$
0*
#239000
1!
1$
1*
b111000100110000 /
#240000
0!
0$
0*
#241000
1!
1$
1*
b111000100110000 /
#242000
0!
0$
0*
#243000
1!
1$
1*
b111000100110000 /
#244000
0!
0$
0*
#245000
1!
1$
1*
b111000100110000 /
#246000
0!
0$
0*
#247000
1!
1$
1*
b111000100110000 /
#248000
0!
0$
0*
#249000
1!
1$
1*
b111000100110000 /
#250000
0!
0$
0*
#251000
1!
1$
1*
b111000100110000 /
#252000
0!
0$
0*
#253000
1!
1$
1*
b111000100110000 /
#254000
0!
0$
0*
#255000
1!
1$
1*
b111000100110000 /
#256000
0!
0$
0*
#257000
1!
1$
1*
b111000100110000 /
#258000
0!
0$
0*
#259000
1!
1$
1*
b111000100110000 /
#260000
0!
0$
0*
#261000
1!
1$
1*
b111000100110000 /
#262000
0!
0$
0*
#263000
1!
1$
1*
b111000100110000 /
#264000
0!
0$
0*
#265000
1!
1$
1*
b111000100110000 /
#266000
0!
0$
0*
#267000
1!
1$
1*
b111000100110000 /
#268000
0!
0$
0*
#269000
1!
1$
1*
b111000100110000 /
#270000
0!
0$
0*
#271000
1!
1$
1*
b111000100110000 /
#272000
0!
0$
0*
#273000
1!
1$
1*
b111000100110000 /
#274000
0!
0$
0*
#275000
1!
1$
1*
b111000100110000 /
#276000
0!
0$
0*
#277000
1!
1$
1*
b111000100110000 /
#278000
0!
0$
0*
#279000
1!
1$
1*
b111000100110000 /
#280000
0!
0$
0*
#281000
1!
1$
1*
b111000100110000 /
#282000
0!
0$
0*
#283000
1!
1$
1*
b111000100110000 /
#284000
0!
0$
0*
#285000
1!
1$
1*
b111000100110000 /
#286000
0!
0$
0*
#287000
1!
1$
1*
b111000100110000 /
#288000
0!
0$
0*
#289000
1!
1$
1*
b111000100110000 /
#290000
0!
0$
0*
#291000
1!
1$
1*
b111000100110000 /
#292000
0!
0$
0*
#293000
1!
1$
1*
b111000100110000 /
#294000
0!
0$
0*
#295000
1!
1$
1*
b111000100110000 /
#296000
0!
0$
0*
#297000
1!
1$
1*
b111000100110000 /
#298000
0!
0$
0*
#299000
1!
1$
1*
b111000100110000 /
#300000
0!
0$
0*
#301000
1!
1$
1*
b111000100110000 /
#302000
0!
0$
0*
#303000
1!
1$
1*
b111000100110000 /
#304000
0!
0$
0*
#305000
1!
1$
1*
b111000100110000 /
#306000
0!
0$
0*
#307000
1!
1$
1*
b111000100110000 /
#308000
0!
0$
0*
#309000
1!
1$
1*
b111000100110000 /
